Using R
…
## # A tibble: 1 x 1
##   city   
##   <chr>  
## 1 Abilene

txhousing[2,]

## # A tibble: 1 x 9
##   city     year month sales  volume median listings inventory  date
##   <chr>   <int> <int> <dbl>   <dbl>  <dbl>    <dbl>     <dbl> <dbl>
## 1 Abilene  2000     2    98 6505000  58700      746       6.6 2000.

txhousing[,5]

## # A tibble: 8,602 x 1
##      volume
##       <dbl>
##  1  5380000
##  2  6505000
##  3  9285000
##  4  9730000
##  5 10590000
##  6 13910000
##  7 12635000
##  8 10710000
##  9  7615000
## 10  7040000
## #  with 8,592 more rows

txhousing[txhousing$year < 2003,]

## # A tibble: 1,656 x 9
##    city     year month sales   volume median listings inventory  date
##    <chr>   <int> <int> <dbl>    <dbl>  <dbl>    <dbl>     <dbl> <dbl>
##  1 Abilene  2000     1    72  5380000  71400      701       6.3 2000 
##  2 Abilene  2000     2    98  6505000  58700      746       6.6 2000.
##  3 Abilene  2000     3   130  9285000  58100      784       6.8 2000.
##  4 Abilene  2000     4    98  9730000  68600      785       6.9 2000.
##  5 Abilene  2000     5   141 10590000  67300      794       6.8 2000.
##  6 Abilene  2000     6   156 13910000  66900      780       6.6 2000.
##  7 Abilene  2000     7   152 12635000  73500      742       6.2 2000.
##  8 Abilene  2000     8   131 10710000  75000      765       6.4 2001.
##  9 Abilene  2000     9   104  7615000  64500      771       6.5 2001.
## 10 Abilene  2000    10   101  7040000  59300      764       6.6 2001.
## #  with 1,646 more rows

txhousing[,c(1:4)]

## # A tibble: 8,602 x 4
##    city     year month sales
##    <chr>   <int> <int> <dbl>
##  1 Abilene  2000     1    72
##  2 Abilene  2000     2    98
##  3 Abilene  2000     3   130
##  4 Abilene  2000     4    98
##  5 Abilene  2000     5   141
##  6 Abilene  2000     6   156
##  7 Abilene  2000     7   152
##  8 Abilene  2000     8   131
##  9 Abilene  2000     9   104
## 10 Abilene  2000    10   101
## #  with 8,592 more rows

txhousing[txhousing$city=="San Antonio",c(1:6,8)]

## # A tibble: 187 x 7
##    city         year month sales    volume median inventory
##    <chr>       <int> <int> <dbl>     <dbl>  <dbl>     <dbl>
##  1 San Antonio  2000     1   820  98974924  90900       4.7
##  2 San Antonio  2000     2  1075 120851076  86000       4.7
##  3 San Antonio  2000     3  1433 167748201  87000       4.9
##  4 San Antonio  2000     4  1263 145280248  90200       5  
##  5 San Antonio  2000     5  1574 183281564  91200       5  
##  6 San Antonio  2000     6  1666 210779154 100100       5  
##  7 San Antonio  2000     7  1508 185816640 100500       4.9
##  8 San Antonio  2000     8  1626 195515195  93400       5.2
##  9 San Antonio  2000     9  1300 156643797  94800       5.2
## 10 San Antonio  2000    10  1192 141630200  93500       5.2
## #  with 177 more rows

AbilineData <- txhousing[txhousing$city == "Abilene",]

This could be an entire lecture by itself!!! It is important to know how Rs indexing works, but in the year 2019 there is no need to be using base R command to index. We will talk more about the tidyverse tomorrow, but the following code does the exact same indexing as the base R code above, but is much more human readable.

Tidyverse

txhousing %>%
  select(year)

## # A tibble: 8,602 x 1
##     year
##    <int>
##  1  2000
##  2  2000
##  3  2000
##  4  2000
##  5  2000
##  6  2000
##  7  2000
##  8  2000
##  9  2000
## 10  2000
## #  with 8,592 more rows

txhousing %>%
  filter(year < 2003)

## # A tibble: 1,656 x 9
##    city     year month sales   volume median listings inventory  date
##    <chr>   <int> <int> <dbl>    <dbl>  <dbl>    <dbl>     <dbl> <dbl>
##  1 Abilene  2000     1    72  5380000  71400      701       6.3 2000 
##  2 Abilene  2000     2    98  6505000  58700      746       6.6 2000.
##  3 Abilene  2000     3   130  9285000  58100      784       6.8 2000.
##  4 Abilene  2000     4    98  9730000  68600      785       6.9 2000.
##  5 Abilene  2000     5   141 10590000  67300      794       6.8 2000.
##  6 Abilene  2000     6   156 13910000  66900      780       6.6 2000.
##  7 Abilene  2000     7   152 12635000  73500      742       6.2 2000.
##  8 Abilene  2000     8   131 10710000  75000      765       6.4 2001.
##  9 Abilene  2000     9   104  7615000  64500      771       6.5 2001.
## 10 Abilene  2000    10   101  7040000  59300      764       6.6 2001.
## #  with 1,646 more rows

txhousing %>%
  select(city:volume)

## # A tibble: 8,602 x 5
##    city     year month sales   volume
##    <chr>   <int> <int> <dbl>    <dbl>
##  1 Abilene  2000     1    72  5380000
##  2 Abilene  2000     2    98  6505000
##  3 Abilene  2000     3   130  9285000
##  4 Abilene  2000     4    98  9730000
##  5 Abilene  2000     5   141 10590000
##  6 Abilene  2000     6   156 13910000
##  7 Abilene  2000     7   152 12635000
##  8 Abilene  2000     8   131 10710000
##  9 Abilene  2000     9   104  7615000
## 10 Abilene  2000    10   101  7040000
## #  with 8,592 more rows

txhousing %>%
  select(1:6, inventory) %>%
  filter(city == "San Antonio")

## # A tibble: 187 x 7
##    city         year month sales    volume median inventory
##    <chr>       <int> <int> <dbl>     <dbl>  <dbl>     <dbl>
##  1 San Antonio  2000     1   820  98974924  90900       4.7
##  2 San Antonio  2000     2  1075 120851076  86000       4.7
##  3 San Antonio  2000     3  1433 167748201  87000       4.9
##  4 San Antonio  2000     4  1263 145280248  90200       5  
##  5 San Antonio  2000     5  1574 183281564  91200       5  
##  6 San Antonio  2000     6  1666 210779154 100100       5  
##  7 San Antonio  2000     7  1508 185816640 100500       4.9
##  8 San Antonio  2000     8  1626 195515195  93400       5.2
##  9 San Antonio  2000     9  1300 156643797  94800       5.2
## 10 San Antonio  2000    10  1192 141630200  93500       5.2
## #  with 177 more rows
…
